{
    "m_SelectedDeviceId": "14c31a50",
    "m_SelectedPackage": {
        "deviceId": "14c31a50",
        "name": "com.playtiz.androidVaultBuster",
        "processId": 21571,
        "exited": false
    },
    "m_SelectedPriority": 0,
    "m_KnownPackagesForSerialization": [
        {
            "deviceId": "14c31a50",
            "name": "com.miui.home",
            "processId": 2581,
            "exited": false
        },
        {
            "deviceId": "14c31a50",
            "name": "com.playtiz.androidVaultBuster",
            "processId": 6837,
            "exited": true
        },
        {
            "deviceId": "14c31a50",
            "name": "com.playtiz.androidVaultBuster",
            "processId": 11885,
            "exited": true
        },
        {
            "deviceId": "14c31a50",
            "name": "com.playtiz.androidVaultBuster",
            "processId": 14309,
            "exited": true
        },
        {
            "deviceId": "14c31a50",
            "name": "com.playtiz.androidVaultBuster",
            "processId": 15445,
            "exited": true
        },
        {
            "deviceId": "14c31a50",
            "name": "com.playtiz.androidVaultBuster",
            "processId": 18177,
            "exited": false
        },
        {
            "deviceId": "14c31a50",
            "name": "com.playtiz.androidVaultBuster",
            "processId": 21571,
            "exited": false
        }
    ],
    "m_Tags": {
        "m_Entries": [
            {
                "m_Name": "Filter by all listed tags",
                "m_Selected": false
            },
            {
                "m_Name": "No Filter",
                "m_Selected": true
            },
            {
                "m_Name": "",
                "m_Selected": false
            },
            {
                "m_Name": "Tag Control...",
                "m_Selected": false
            },
            {
                "m_Name": "",
                "m_Selected": false
            },
            {
                "m_Name": "Unity",
                "m_Selected": false
            },
            {
                "m_Name": "CRASH",
                "m_Selected": false
            }
        ]
    },
    "m_MemoryViewerState": {
        "MemoryWindowHeight": 300.0,
        "MemoryWindowWidth": 170.0,
        "MemoryTypeEnabled": [
            true,
            true,
            true,
            true,
            true,
            true,
            true,
            true,
            true,
            true
        ],
        "MemoryGroup": 2,
        "Behavior": 0
    },
    "m_FilterOptions": {
        "m_Filter": "unity",
        "m_UseRegularExpressions": false,
        "m_MatchCase": false
    },
    "m_SymbolPaths": [],
    "m_CaptureVideoSettings": {
        "TimeLimitEnabled": false,
        "TimeLimit": 180,
        "VideoSizeEnabled": false,
        "VideoSizeX": 1280,
        "VideoSizeY": 720,
        "BitRateEnabled": false,
        "BitRateK": 20000,
        "DisplayIdEnabled": false,
        "DisplayId": ""
    }
}