%YAML 1.1
%TAG !u! tag:unity3d.com,2011:
--- !u!114 &11400000
MonoBehaviour:
  m_ObjectHideFlags: 8
  m_CorrespondingSourceObject: {fileID: 0}
  m_PrefabInstance: {fileID: 0}
  m_PrefabAsset: {fileID: 0}
  m_GameObject: {fileID: 0}
  m_Enabled: 1
  m_EditorHideFlags: 0
  m_Script: {fileID: 11500000, guid: 90f1656e8080498498ba32a11f9e1551, type: 3}
  m_Name: AdjustConfig
  m_EditorClassIdentifier: 
  m_IosConfig:
    m_appToken: adjust_temp_app_id
  m_AndroidConfig:
    m_appToken: rofiyzrom4g0
  m_isReferralSystemEnabled: 0
  m_referralSchema: 
  m_referralHost: 
